<svg xmlns="http://www.w3.org/2000/svg" width="131.737" height="28" viewBox="0 0 131.737 28">
  <g id="Buzzencer_Logo-02" transform="translate(-73.1 -770.94)">
    <path id="Path_15317" data-name="Path 15317" d="M94.162,798.94H80.121a7.01,7.01,0,0,1-7.021-7v-14a7.01,7.01,0,0,1,7.021-7H94.162a7.01,7.01,0,0,1,7.021,7v14A7.01,7.01,0,0,1,94.162,798.94ZM84.112,778.8l-1.736,1.555a.1.1,0,0,0-.033.074v9.008a.1.1,0,0,0,.033.074l1.736,1.555a.1.1,0,0,0,.17-.074V778.878a.1.1,0,0,0-.17-.076Zm-3.166,2.841-3.589,3.223a.1.1,0,0,0,0,.148l3.589,3.221a.1.1,0,0,0,.171-.074v-6.442a.1.1,0,0,0-.171-.076Zm6.335-5.554-1.736,1.433a.1.1,0,0,0-.037.078v14.683a.1.1,0,0,0,.037.079l1.733,1.43a.1.1,0,0,0,.167-.074v-17.55a.1.1,0,0,0-.167-.082Zm5.026,8.944a.1.1,0,0,1,0-.18,5.278,5.278,0,0,0,1.3-.893,5.092,5.092,0,0,0-4.861-8.534.1.1,0,0,0-.074.1v18.836a.1.1,0,0,0,.074.1,5.092,5.092,0,0,0,4.861-8.535,5.174,5.174,0,0,0-1.3-.895Z" transform="translate(0 0)" fill="#fff"/>
    <path id="Path_15318" data-name="Path 15318" d="M529.683,872.053a3.5,3.5,0,0,1,.781,2.239,3.594,3.594,0,0,1-.563,2,3.739,3.739,0,0,1-1.628,1.354,5.976,5.976,0,0,1-2.518.489H519.59V863.93h5.9A6.151,6.151,0,0,1,528,864.4a3.563,3.563,0,0,1,1.6,1.3,3.4,3.4,0,0,1,.543,1.893,3.213,3.213,0,0,1-.668,2.076,3.557,3.557,0,0,1-1.771,1.182A3.221,3.221,0,0,1,529.683,872.053Zm-7.228-2.215h2.62a2.374,2.374,0,0,0,1.577-.468,1.662,1.662,0,0,0,.553-1.344,1.708,1.708,0,0,0-.564-1.364,2.31,2.31,0,0,0-1.566-.488h-2.62Zm4.518,5.543a1.784,1.784,0,0,0,.583-1.435,1.809,1.809,0,0,0-.614-1.446,2.451,2.451,0,0,0-1.658-.529h-2.822v3.909h2.878A2.445,2.445,0,0,0,526.973,875.381Z" transform="translate(-413.33 -86.084)" fill="#fff"/>
    <path id="Path_15319" data-name="Path 15319" d="M697.25,903.63v11.343h-2.887v-1.433a3.786,3.786,0,0,1-1.443,1.157,4.489,4.489,0,0,1-1.935.42,4.806,4.806,0,0,1-2.354-.563,3.97,3.97,0,0,1-1.607-1.658,5.479,5.479,0,0,1-.584-2.611V903.63H689.3v6.245a2.949,2.949,0,0,0,.675,2.08,2.382,2.382,0,0,0,1.843.726,2.416,2.416,0,0,0,1.863-.726,2.951,2.951,0,0,0,.676-2.08V903.63Z" transform="translate(-567.789 -122.884)" fill="#fff"/>
    <path id="Path_15320" data-name="Path 15320" d="M856.485,912.618h5.058v2.354H853.23v-2.314l4.959-6.675h-4.938V903.63h8.23v2.313Z" transform="translate(-722.191 -122.884)" fill="#fff"/>
    <path id="Path_15321" data-name="Path 15321" d="M982.335,912.618h5.057v2.354H979.08v-2.313l4.954-6.675H979.1V903.63h8.231v2.313Z" transform="translate(-838.695 -122.884)" fill="#fff"/>
    <path id="Path_15322" data-name="Path 15322" d="M1110.347,907.8h-8.292a2.844,2.844,0,0,0,.839,1.965,2.637,2.637,0,0,0,1.884.717,2.342,2.342,0,0,0,2.273-1.372h3.091a5.163,5.163,0,0,1-1.884,2.692,5.493,5.493,0,0,1-3.416,1.055,5.917,5.917,0,0,1-2.938-.726,5.115,5.115,0,0,1-2.027-2.058,6.3,6.3,0,0,1-.727-3.072,6.42,6.42,0,0,1,.717-3.091,4.994,4.994,0,0,1,2.005-2.048,6.021,6.021,0,0,1,2.97-.717,5.96,5.96,0,0,1,2.9.7,4.918,4.918,0,0,1,1.983,1.967,5.924,5.924,0,0,1,.706,2.928A6.554,6.554,0,0,1,1110.347,907.8Zm-2.89-1.741a2.447,2.447,0,0,0-.788-1.873,2.774,2.774,0,0,0-1.915-.686,2.573,2.573,0,0,0-1.823.686,2.944,2.944,0,0,0-.88,1.873Z" transform="translate(-949.848 -120.588)" fill="#fff"/>
    <path id="Path_15323" data-name="Path 15323" d="M1279.959,902.678a4.9,4.9,0,0,1,1.249,3.573v6.655h-2.867V906.64a2.947,2.947,0,0,0-.676-2.079,2.387,2.387,0,0,0-1.843-.727,2.45,2.45,0,0,0-1.874.727,2.907,2.907,0,0,0-.683,2.079v6.265H1270.4V901.562h2.867v1.411a3.96,3.96,0,0,1,1.464-1.156,4.532,4.532,0,0,1,1.956-.42A4.375,4.375,0,0,1,1279.959,902.678Z" transform="translate(-1108.379 -120.816)" fill="#fff"/>
    <path id="Path_15324" data-name="Path 15324" d="M1434.715,903.925a5.114,5.114,0,0,1,1.986-2.047,5.738,5.738,0,0,1,2.907-.727,5.589,5.589,0,0,1,3.49,1.055,5.146,5.146,0,0,1,1.857,2.958h-3.092a2.265,2.265,0,0,0-.83-1.156,2.409,2.409,0,0,0-1.444-.42,2.362,2.362,0,0,0-1.945.891,4.777,4.777,0,0,0,0,5.034,2.365,2.365,0,0,0,1.945.891,2.176,2.176,0,0,0,2.273-1.56h3.092a5.24,5.24,0,0,1-1.863,2.928,5.489,5.489,0,0,1-3.481,1.085,5.746,5.746,0,0,1-2.908-.726,5.122,5.122,0,0,1-1.986-2.047,6.97,6.97,0,0,1,0-6.158Z" transform="translate(-1259.829 -120.588)" fill="#fff"/>
    <path id="Path_15325" data-name="Path 15325" d="M1601.427,907.8h-8.294a2.844,2.844,0,0,0,.839,1.965,2.638,2.638,0,0,0,1.884.717,2.342,2.342,0,0,0,2.273-1.372h3.092a5.165,5.165,0,0,1-1.883,2.692,5.5,5.5,0,0,1-3.417,1.055,5.935,5.935,0,0,1-2.938-.726,5.116,5.116,0,0,1-2.027-2.058,6.308,6.308,0,0,1-.727-3.072,6.418,6.418,0,0,1,.717-3.091,5,5,0,0,1,2.005-2.048,6.027,6.027,0,0,1,2.971-.717,5.961,5.961,0,0,1,2.9.7,4.915,4.915,0,0,1,1.982,1.967,5.906,5.906,0,0,1,.707,2.928A6.445,6.445,0,0,1,1601.427,907.8Zm-2.887-1.741a2.441,2.441,0,0,0-.788-1.873,2.776,2.776,0,0,0-1.915-.686,2.571,2.571,0,0,0-1.822.686,2.946,2.946,0,0,0-.881,1.873Z" transform="translate(-1404.456 -120.588)" fill="#fff"/>
    <path id="Path_15326" data-name="Path 15326" d="M1765.722,901.987a3.681,3.681,0,0,1,2.037-.573v3.014H1767a2.393,2.393,0,0,0-2.726,2.842v5.651h-2.866V901.578h2.866v2.005a4.263,4.263,0,0,1,1.446-1.6Z" transform="translate(-1562.923 -120.831)" fill="#fff"/>
  </g>
</svg>
