<svg xmlns="http://www.w3.org/2000/svg" xmlns:xlink="http://www.w3.org/1999/xlink" width="70.874" height="33.065" viewBox="0 0 70.874 33.065">
  <defs>
    <linearGradient id="linear-gradient" x1="0.747" y1="-0.266" x2="0.812" y2="1.099" gradientUnits="objectBoundingBox">
      <stop offset="0" stop-color="#403bbf"/>
      <stop offset="1" stop-color="#fff" stop-opacity="0"/>
    </linearGradient>
  </defs>
  <g id="Group_12300" data-name="Group 12300" transform="translate(1832.585 -2285.325)">
    <path id="Path_35864" data-name="Path 35864" d="M571.68,2876c-8.414,12.887-14.945,1.859-20.555,3.408s-4.5,8.531-8.759,11.8-5.132-7.142-9.569-5.335-3.579,11-8.177,12.564-4.561-8.672-10.216-6.314S502,2906.87,502,2907.871s69.681,0,69.681,0Z" transform="translate(-2333.764 -590.142)" fill="url(#linear-gradient)"/>
    <path id="Path_35865" data-name="Path 35865" d="M502,2907.871c0-1,6.749-13.389,12.4-15.748s5.618,7.876,10.216,6.314,3.74-10.757,8.177-12.564,5.306,8.605,9.569,5.335,3.148-10.252,8.759-11.8,12.141,9.479,20.555-3.408" transform="translate(-2334.083 -589.982)" fill="none" stroke="#403bbf" stroke-linecap="round" stroke-width="1"/>
  </g>
</svg>
