<svg id="Group_12899" data-name="Group 12899" xmlns="http://www.w3.org/2000/svg" width="21.784" height="21.795" viewBox="0 0 21.784 21.795">
  <g id="magic-wand-01" transform="translate(0)">
    <path id="Path_37312" data-name="Path 37312" d="M801.218,294.628a.937.937,0,0,1-1.31.573l-1.336-.356a.889.889,0,0,1-.728-1.087.877.877,0,0,1,1.164-.588c.446.117.886.255,1.336.351a1.1,1.1,0,0,1,.873.7Z" transform="translate(-779.434 -280.834)" fill="#feb224"/>
    <path id="Path_37313" data-name="Path 37313" d="M585.181,163.253c-.621-1.449-1.233-2.879-1.85-4.306a.972.972,0,0,1-.049-.808.87.87,0,0,1,1.188-.43c1.131.479,2.258.966,3.387,1.451l1,.426,1.333-1.779,1.485-1.986a.884.884,0,0,1,.992-.41.894.894,0,0,1,.646.859c.173,1.479.353,2.957.523,4.437.02.178.1.241.269.26,1.479.171,2.957.348,4.436.523a.875.875,0,0,1,.45,1.625q-1.759,1.326-3.526,2.644c-.077.057-.154.116-.241.185.042.109.077.214.124.317.579,1.35,1.161,2.7,1.735,4.05a.85.85,0,0,1-.6,1.248,1.241,1.241,0,0,1-.637-.106c-1.371-.576-2.735-1.168-4.1-1.755-.06-.026-.123-.047-.2-.077l-1.5,2.008-1.295,1.732a.879.879,0,0,1-1.01.429.906.906,0,0,1-.653-.886c-.171-1.48-.351-2.958-.52-4.438-.019-.154-.086-.207-.231-.224-1.479-.17-2.957-.349-4.436-.521a.916.916,0,0,1-.871-.634.873.873,0,0,1,.411-1.016q1.753-1.315,3.508-2.626Z" transform="translate(-579.309 -153.7)" fill="#feb224"/>
    <path id="Path_37314" data-name="Path 37314" d="M771.73,169.532a2.147,2.147,0,0,1-.284.511c-.373.413-.775.8-1.178,1.187a.864.864,0,1,1-1.22-1.222q.592-.61,1.2-1.2a.83.83,0,0,1,.96-.175A.9.9,0,0,1,771.73,169.532Z" transform="translate(-752.633 -165.858)" fill="#feb224"/>
    <path id="Path_37315" data-name="Path 37315" d="M562.743,230.422a.848.848,0,0,1-1.031.841c-.587-.135-1.17-.3-1.748-.467a.86.86,0,0,1,.462-1.656q.837.2,1.665.442A.833.833,0,0,1,562.743,230.422Z" transform="translate(-559.357 -221.755)" fill="#feb224"/>
    <path id="Path_37316" data-name="Path 37316" d="M719.317,372.42a.823.823,0,0,1,.828.588q.262.881.476,1.773a.843.843,0,0,1-.587.99.822.822,0,0,1-1.039-.488,17.121,17.121,0,0,1-.513-1.913A.827.827,0,0,1,719.317,372.42Z" transform="translate(-706.204 -354.017)" fill="#feb224"/>
    <path id="Path_37317" data-name="Path 37317" d="M656.715,136.043a.9.9,0,0,1-.718.993.858.858,0,0,1-.952-.577c-.174-.577-.332-1.161-.469-1.748a.847.847,0,0,1,.627-1.044.861.861,0,0,1,1.043.628C656.421,134.913,656.579,135.534,656.715,136.043Z" transform="translate(-647.211 -133.64)" fill="#feb224"/>
  </g>
</svg>
