<svg xmlns="http://www.w3.org/2000/svg" xmlns:xlink="http://www.w3.org/1999/xlink" width="558.857" height="1164.085" viewBox="0 0 558.857 1164.085">
  <defs>
    <linearGradient id="linear-gradient" x1="0.5" x2="0.5" y2="1" gradientUnits="objectBoundingBox">
      <stop offset="0" stop-color="#fff" stop-opacity="0"/>
      <stop offset="1" stop-color="#1eb0c9"/>
    </linearGradient>
  </defs>
  <path id="Path_14897" data-name="Path 14897" d="M210,0s84.111,763.418,31.611,854.418S0,364,0,364Z" transform="translate(150 150)" opacity="0.46" fill="url(#linear-gradient)"/>
</svg>
