<svg xmlns="http://www.w3.org/2000/svg" width="354" height="284" viewBox="0 0 354 284">
  <ellipse id="Ellipse_375" data-name="Ellipse 375" cx="111" cy="76" rx="111" ry="76" transform="translate(66 66)" fill="#fbebee"/>
</svg>
